Apply GAM to time series and assess emerging status — apply_gam • trias
…
#> $model
#> 
#> Family: Negative Binomial(3.527) 
#> Link function: log 
#> 
#> Formula:
#> n ~ s(year, k = maxk, m = 3, bs = "tp")
#> 
#> Estimated degrees of freedom:
#> 2  total = 3 
#> 
#> REML score: 42.28844     
#> 
#> $output
#> # A tibble: 24 × 14
#>    taxonKey canonicalName  year     n n_class method   fit   ucl   lcl   em1
#>       <dbl> <chr>         <dbl> <dbl>   <dbl> <chr>  <dbl> <dbl> <dbl> <dbl>
#>  1  3003709 Rosa glauca    1995     1     229 basic  0.530  2.25 0.125     0
#>  2  3003709 Rosa glauca    1996     1     555 basic  0.570  1.97 0.165     0
#>  3  3003709 Rosa glauca    1997     0    1116 basic  0.614  1.78 0.212     0
#>  4  3003709 Rosa glauca    1998     0     939 basic  0.664  1.65 0.268     0
#>  5  3003709 Rosa glauca    1999     0     919 basic  0.721  1.58 0.329     0
#>  6  3003709 Rosa glauca    2000     2     853 basic  0.786  1.57 0.394     0
#>  7  3003709 Rosa glauca    2001     0     442 basic  0.859  1.61 0.460     0
#>  8  3003709 Rosa glauca    2002     0     532 basic  0.943  1.70 0.524     1
#>  9  3003709 Rosa glauca    2003     1     623 basic  1.04   1.84 0.587     1
#> 10  3003709 Rosa glauca    2004     3    1178 basic  1.15   2.02 0.651     1
#> # ℹ 14 more rows
#> # ℹ 4 more variables: em2 <dbl>, em <dbl>, em_status <dbl>, growth <dbl>
#> 
#> $first_derivative
#> # A tibble: 24 × 7
#>    smooth  derivative     se  crit  lower_ci upper_ci  year
#>    <chr>        <dbl>  <dbl> <dbl>     <dbl>    <dbl> <dbl>
#>  1 s(year)     0.0699 0.124   1.28 -0.0891      0.229 1995.
#>  2 s(year)     0.0734 0.115   1.28 -0.0739      0.221 1996.
#>  3 s(year)     0.0770 0.106   1.28 -0.0588      0.213 1997.
#>  4 s(year)     0.0805 0.0970  1.28 -0.0437      0.205 1998.
#>  5 s(year)     0.0841 0.0881  1.28 -0.0288      0.197 1999.
#>  6 s(year)     0.0876 0.0793  1.28 -0.0140      0.189 2000.
#>  7 s(year)     0.0911 0.0707  1.28  0.000581    0.182 2001.
#>  8 s(year)     0.0947 0.0623  1.28  0.0149      0.174 2002.
#>  9 s(year)     0.0982 0.0542  1.28  0.0288      0.168 2003.
#> 10 s(year)     0.102  0.0466  1.28  0.0421      0.161 2004.
#> # ℹ 14 more rows
#> 
#> $second_derivative
#> # A tibble: 24 × 7
#>    smooth  derivative      se  crit lower_ci upper_ci  year
#>    <chr>        <dbl>   <dbl> <dbl>    <dbl>    <dbl> <dbl>
#>  1 s(year)    0.00354 0.00938  1.28 -0.00847   0.0156 1995.
#>  2 s(year)    0.00354 0.00938  1.28 -0.00847   0.0156 1996.
#>  3 s(year)    0.00354 0.00937  1.28 -0.00847   0.0156 1997.
#>  4 s(year)    0.00354 0.00937  1.28 -0.00847   0.0156 1998.
#>  5 s(year)    0.00354 0.00937  1.28 -0.00847   0.0156 1999.
#>  6 s(year)    0.00354 0.00937  1.28 -0.00847   0.0156 2000.
#>  7 s(year)    0.00354 0.00937  1.28 -0.00847   0.0156 2001.
#>  8 s(year)    0.00354 0.00937  1.28 -0.00847   0.0156 2002.
#>  9 s(year)    0.00354 0.00937  1.28 -0.00847   0.0156 2003.
#> 10 s(year)    0.00354 0.00937  1.28 -0.00847   0.0156 2004.
#> # ℹ 14 more rows
…
#> $model
#> 
#> Family: Negative Binomial(2.907) 
#> Link function: log 
#> 
#> Formula:
#> n ~ s(year, k = maxk, m = 3, bs = "tp") + s(n_class)
#> 
#> Estimated degrees of freedom:
#> 2 1  total = 4 
#> 
#> REML score: 42.23685     
#> 
#> $output
#> # A tibble: 24 × 14
#>    taxonKey canonicalName  year     n n_class method       fit   ucl   lcl   em1
#>       <dbl> <chr>         <dbl> <dbl>   <dbl> <chr>      <dbl> <dbl> <dbl> <dbl>
#>  1  3003709 Rosa glauca    1995     1     229 correct_b… 0.488  2.30 0.103     0
#>  2  3003709 Rosa glauca    1996     1     555 correct_b… 0.522  2.07 0.132     0
#>  3  3003709 Rosa glauca    1997     0    1116 correct_b… 0.561  1.92 0.164     0
#>  4  3003709 Rosa glauca    1998     0     939 correct_b… 0.606  1.84 0.200     0
#>  5  3003709 Rosa glauca    1999     0     919 correct_b… 0.658  1.82 0.239     0
#>  6  3003709 Rosa glauca    2000     2     853 correct_b… 0.719  1.84 0.280     0
#>  7  3003709 Rosa glauca    2001     0     442 correct_b… 0.789  1.91 0.325     0
#>  8  3003709 Rosa glauca    2002     0     532 correct_b… 0.870  2.02 0.375     1
#>  9  3003709 Rosa glauca    2003     1     623 correct_b… 0.964  2.16 0.431     1
#> 10  3003709 Rosa glauca    2004     3    1178 correct_b… 1.07   2.32 0.498     1
#> # ℹ 14 more rows
#> # ℹ 4 more variables: em2 <dbl>, em <dbl>, em_status <dbl>, growth <dbl>
#> 
#> $first_derivative
#> # A tibble: 48 × 8
#>    smooth  derivative     se  crit lower_ci upper_ci  year n_class
#>    <chr>        <dbl>  <dbl> <dbl>    <dbl>    <dbl> <dbl>   <dbl>
#>  1 s(year)     0.0647 0.131   1.28 -0.103      0.232 1995.      NA
#>  2 s(year)     0.0698 0.120   1.28 -0.0840     0.224 1996.      NA
#>  3 s(year)     0.0749 0.110   1.28 -0.0657     0.216 1997.      NA
#>  4 s(year)     0.0800 0.0998  1.28 -0.0479     0.208 1998.      NA
#>  5 s(year)     0.0851 0.0902  1.28 -0.0305     0.201 1999.      NA
#>  6 s(year)     0.0902 0.0812  1.28 -0.0138     0.194 2000.      NA
#>  7 s(year)     0.0953 0.0728  1.28  0.00198    0.189 2001.      NA
#>  8 s(year)     0.100  0.0656  1.28  0.0164     0.184 2002.      NA
#>  9 s(year)     0.106  0.0597  1.28  0.0291     0.182 2003.      NA
#> 10 s(year)     0.111  0.0556  1.28  0.0394     0.182 2004.      NA
#> # ℹ 38 more rows
#> 
#> $second_derivative
#> # A tibble: 48 × 8
#>    smooth  derivative     se  crit lower_ci upper_ci  year n_class
#>    <chr>        <dbl>  <dbl> <dbl>    <dbl>    <dbl> <dbl>   <dbl>
#>  1 s(year)    0.00511 0.0116  1.28 -0.00979   0.0200 1995.      NA
#>  2 s(year)    0.00511 0.0116  1.28 -0.00979   0.0200 1996.      NA
#>  3 s(year)    0.00511 0.0116  1.28 -0.00979   0.0200 1997.      NA
#>  4 s(year)    0.00511 0.0116  1.28 -0.00979   0.0200 1998.      NA
#>  5 s(year)    0.00511 0.0116  1.28 -0.00979   0.0200 1999.      NA
#>  6 s(year)    0.00511 0.0116  1.28 -0.00979   0.0200 2000.      NA
#>  7 s(year)    0.00511 0.0116  1.28 -0.00979   0.0200 2001.      NA
#>  8 s(year)    0.00511 0.0116  1.28 -0.00979   0.0200 2002.      NA
#>  9 s(year)    0.00511 0.0116  1.28 -0.00979   0.0200 2003.      NA
#> 10 s(year)    0.00511 0.0116  1.28 -0.00979   0.0200 2004.      NA
#> # ℹ 38 more rows
…
#> $model
#> 
#> Family: Negative Binomial(3.527) 
#> Link function: log 
#> 
#> Formula:
#> n ~ s(year, k = maxk, m = 3, bs = "tp")
#> 
#> Estimated degrees of freedom:
#> 2  total = 3 
#> 
#> REML score: 42.28844     
#> 
#> $output
#> # A tibble: 24 × 14
#>    taxonKey canonicalName  year     n n_class method   fit   ucl   lcl   em1
#>       <dbl> <chr>         <dbl> <dbl>   <dbl> <chr>  <dbl> <dbl> <dbl> <dbl>
#>  1  3003709 Rosa glauca    1995     1     229 basic  0.530  2.25 0.125     0
#>  2  3003709 Rosa glauca    1996     1     555 basic  0.570  1.97 0.165     0
#>  3  3003709 Rosa glauca    1997     0    1116 basic  0.614  1.78 0.212     0
#>  4  3003709 Rosa glauca    1998     0     939 basic  0.664  1.65 0.268     0
#>  5  3003709 Rosa glauca    1999     0     919 basic  0.721  1.58 0.329     0
#>  6  3003709 Rosa glauca    2000     2     853 basic  0.786  1.57 0.394     0
#>  7  3003709 Rosa glauca    2001     0     442 basic  0.859  1.61 0.460     0
#>  8  3003709 Rosa glauca    2002     0     532 basic  0.943  1.70 0.524     1
#>  9  3003709 Rosa glauca    2003     1     623 basic  1.04   1.84 0.587     1
#> 10  3003709 Rosa glauca    2004     3    1178 basic  1.15   2.02 0.651     1
#> # ℹ 14 more rows
#> # ℹ 4 more variables: em2 <dbl>, em <dbl>, em_status <dbl>, growth <dbl>
#> 
#> $first_derivative
#> # A tibble: 24 × 7
#>    smooth  derivative     se  crit  lower_ci upper_ci  year
#>    <chr>        <dbl>  <dbl> <dbl>     <dbl>    <dbl> <dbl>
#>  1 s(year)     0.0699 0.124   1.28 -0.0891      0.229 1995.
#>  2 s(year)     0.0734 0.115   1.28 -0.0739      0.221 1996.
#>  3 s(year)     0.0770 0.106   1.28 -0.0588      0.213 1997.
#>  4 s(year)     0.0805 0.0970  1.28 -0.0437      0.205 1998.
#>  5 s(year)     0.0841 0.0881  1.28 -0.0288      0.197 1999.
#>  6 s(year)     0.0876 0.0793  1.28 -0.0140      0.189 2000.
#>  7 s(year)     0.0911 0.0707  1.28  0.000581    0.182 2001.
#>  8 s(year)     0.0947 0.0623  1.28  0.0149      0.174 2002.
#>  9 s(year)     0.0982 0.0542  1.28  0.0288      0.168 2003.
#> 10 s(year)     0.102  0.0466  1.28  0.0421      0.161 2004.
#> # ℹ 14 more rows
#> 
#> $second_derivative
#> # A tibble: 24 × 7
#>    smooth  derivative      se  crit lower_ci upper_ci  year
#>    <chr>        <dbl>   <dbl> <dbl>    <dbl>    <dbl> <dbl>
#>  1 s(year)    0.00354 0.00938  1.28 -0.00847   0.0156 1995.
#>  2 s(year)    0.00354 0.00938  1.28 -0.00847   0.0156 1996.
#>  3 s(year)    0.00354 0.00937  1.28 -0.00847   0.0156 1997.
#>  4 s(year)    0.00354 0.00937  1.28 -0.00847   0.0156 1998.
#>  5 s(year)    0.00354 0.00937  1.28 -0.00847   0.0156 1999.
#>  6 s(year)    0.00354 0.00937  1.28 -0.00847   0.0156 2000.
#>  7 s(year)    0.00354 0.00937  1.28 -0.00847   0.0156 2001.
#>  8 s(year)    0.00354 0.00937  1.28 -0.00847   0.0156 2002.
#>  9 s(year)    0.00354 0.00937  1.28 -0.00847   0.0156 2003.
#> 10 s(year)    0.00354 0.00937  1.28 -0.00847   0.0156 2004.
#> # ℹ 14 more rows
…
#> $model
#> 
#> Family: Negative Binomial(2.907) 
#> Link function: log 
#> 
#> Formula:
#> n ~ s(year, k = maxk, m = 3, bs = "tp") + s(n_class)
#> 
#> Estimated degrees of freedom:
#> 2 1  total = 4 
#> 
#> REML score: 42.23685     
#> 
#> $output
#> # A tibble: 24 × 14
#>    taxonKey canonicalName  year     n n_class method       fit   ucl   lcl   em1
#>       <dbl> <chr>         <dbl> <dbl>   <dbl> <chr>      <dbl> <dbl> <dbl> <dbl>
#>  1  3003709 Rosa glauca    1995     1     229 correct_b… 0.488  2.30 0.103     0
#>  2  3003709 Rosa glauca    1996     1     555 correct_b… 0.522  2.07 0.132     0
#>  3  3003709 Rosa glauca    1997     0    1116 correct_b… 0.561  1.92 0.164     0
#>  4  3003709 Rosa glauca    1998     0     939 correct_b… 0.606  1.84 0.200     0
#>  5  3003709 Rosa glauca    1999     0     919 correct_b… 0.658  1.82 0.239     0
#>  6  3003709 Rosa glauca    2000     2     853 correct_b… 0.719  1.84 0.280     0
#>  7  3003709 Rosa glauca    2001     0     442 correct_b… 0.789  1.91 0.325     0
#>  8  3003709 Rosa glauca    2002     0     532 correct_b… 0.870  2.02 0.375     1
#>  9  3003709 Rosa glauca    2003     1     623 correct_b… 0.964  2.16 0.431     1
#> 10  3003709 Rosa glauca    2004     3    1178 correct_b… 1.07   2.32 0.498     1
#> # ℹ 14 more rows
#> # ℹ 4 more variables: em2 <dbl>, em <dbl>, em_status <dbl>, growth <dbl>
#> 
#> $first_derivative
#> # A tibble: 48 × 8
#>    smooth  derivative     se  crit lower_ci upper_ci  year n_class
#>    <chr>        <dbl>  <dbl> <dbl>    <dbl>    <dbl> <dbl>   <dbl>
#>  1 s(year)     0.0647 0.131   1.28 -0.103      0.232 1995.      NA
#>  2 s(year)     0.0698 0.120   1.28 -0.0840     0.224 1996.      NA
#>  3 s(year)     0.0749 0.110   1.28 -0.0657     0.216 1997.      NA
#>  4 s(year)     0.0800 0.0998  1.28 -0.0479     0.208 1998.      NA
#>  5 s(year)     0.0851 0.0902  1.28 -0.0305     0.201 1999.      NA
#>  6 s(year)     0.0902 0.0812  1.28 -0.0138     0.194 2000.      NA
#>  7 s(year)     0.0953 0.0728  1.28  0.00198    0.189 2001.      NA
#>  8 s(year)     0.100  0.0656  1.28  0.0164     0.184 2002.      NA
#>  9 s(year)     0.106  0.0597  1.28  0.0291     0.182 2003.      NA
#> 10 s(year)     0.111  0.0556  1.28  0.0394     0.182 2004.      NA
#> # ℹ 38 more rows
#> 
#> $second_derivative
#> # A tibble: 48 × 8
#>    smooth  derivative     se  crit lower_ci upper_ci  year n_class
#>    <chr>        <dbl>  <dbl> <dbl>    <dbl>    <dbl> <dbl>   <dbl>
#>  1 s(year)    0.00511 0.0116  1.28 -0.00979   0.0200 1995.      NA
#>  2 s(year)    0.00511 0.0116  1.28 -0.00979   0.0200 1996.      NA
#>  3 s(year)    0.00511 0.0116  1.28 -0.00979   0.0200 1997.      NA
#>  4 s(year)    0.00511 0.0116  1.28 -0.00979   0.0200 1998.      NA
#>  5 s(year)    0.00511 0.0116  1.28 -0.00979   0.0200 1999.      NA
#>  6 s(year)    0.00511 0.0116  1.28 -0.00979   0.0200 2000.      NA
#>  7 s(year)    0.00511 0.0116  1.28 -0.00979   0.0200 2001.      NA
#>  8 s(year)    0.00511 0.0116  1.28 -0.00979   0.0200 2002.      NA
#>  9 s(year)    0.00511 0.0116  1.28 -0.00979   0.0200 2003.      NA
#> 10 s(year)    0.00511 0.0116  1.28 -0.00979   0.0200 2004.      NA
#> # ℹ 38 more rows
…
#> $model
#> 
#> Family: Negative Binomial(2.907) 
#> Link function: log 
#> 
#> Formula:
#> n ~ s(year, k = maxk, m = 3, bs = "tp") + s(n_class)
#> 
#> Estimated degrees of freedom:
#> 2 1  total = 4 
#> 
#> REML score: 42.23685     
#> 
#> $output
#> # A tibble: 24 × 14
#>    taxonKey canonicalName  year     n n_class method       fit   ucl   lcl   em1
#>       <dbl> <chr>         <dbl> <dbl>   <dbl> <chr>      <dbl> <dbl> <dbl> <dbl>
#>  1  3003709 Rosa glauca    1995     1     229 correct_b… 0.488  2.30 0.103     0
#>  2  3003709 Rosa glauca    1996     1     555 correct_b… 0.522  2.07 0.132     0
#>  3  3003709 Rosa glauca    1997     0    1116 correct_b… 0.561  1.92 0.164     0
#>  4  3003709 Rosa glauca    1998     0     939 correct_b… 0.606  1.84 0.200     0
#>  5  3003709 Rosa glauca    1999     0     919 correct_b… 0.658  1.82 0.239     0
#>  6  3003709 Rosa glauca    2000     2     853 correct_b… 0.719  1.84 0.280     0
#>  7  3003709 Rosa glauca    2001     0     442 correct_b… 0.789  1.91 0.325     0
#>  8  3003709 Rosa glauca    2002     0     532 correct_b… 0.870  2.02 0.375     1
#>  9  3003709 Rosa glauca    2003     1     623 correct_b… 0.964  2.16 0.431     1
#> 10  3003709 Rosa glauca    2004     3    1178 correct_b… 1.07   2.32 0.498     1
#> # ℹ 14 more rows
#> # ℹ 4 more variables: em2 <dbl>, em <dbl>, em_status <dbl>, growth <dbl>
#> 
#> $first_derivative
#> # A tibble: 48 × 8
#>    smooth  derivative     se  crit lower_ci upper_ci  year n_class
#>    <chr>        <dbl>  <dbl> <dbl>    <dbl>    <dbl> <dbl>   <dbl>
#>  1 s(year)     0.0647 0.131   1.28 -0.103      0.232 1995.      NA
#>  2 s(year)     0.0698 0.120   1.28 -0.0840     0.224 1996.      NA
#>  3 s(year)     0.0749 0.110   1.28 -0.0657     0.216 1997.      NA
#>  4 s(year)     0.0800 0.0998  1.28 -0.0479     0.208 1998.      NA
#>  5 s(year)     0.0851 0.0902  1.28 -0.0305     0.201 1999.      NA
#>  6 s(year)     0.0902 0.0812  1.28 -0.0138     0.194 2000.      NA
#>  7 s(year)     0.0953 0.0728  1.28  0.00198    0.189 2001.      NA
#>  8 s(year)     0.100  0.0656  1.28  0.0164     0.184 2002.      NA
#>  9 s(year)     0.106  0.0597  1.28  0.0291     0.182 2003.      NA
#> 10 s(year)     0.111  0.0556  1.28  0.0394     0.182 2004.      NA
#> # ℹ 38 more rows
#> 
#> $second_derivative
#> # A tibble: 48 × 8
#>    smooth  derivative     se  crit lower_ci upper_ci  year n_class
#>    <chr>        <dbl>  <dbl> <dbl>    <dbl>    <dbl> <dbl>   <dbl>
#>  1 s(year)    0.00511 0.0116  1.28 -0.00979   0.0200 1995.      NA
#>  2 s(year)    0.00511 0.0116  1.28 -0.00979   0.0200 1996.      NA
#>  3 s(year)    0.00511 0.0116  1.28 -0.00979   0.0200 1997.      NA
#>  4 s(year)    0.00511 0.0116  1.28 -0.00979   0.0200 1998.      NA
#>  5 s(year)    0.00511 0.0116  1.28 -0.00979   0.0200 1999.      NA
#>  6 s(year)    0.00511 0.0116  1.28 -0.00979   0.0200 2000.      NA
#>  7 s(year)    0.00511 0.0116  1.28 -0.00979   0.0200 2001.      NA
#>  8 s(year)    0.00511 0.0116  1.28 -0.00979   0.0200 2002.      NA
#>  9 s(year)    0.00511 0.0116  1.28 -0.00979   0.0200 2003.      NA
#> 10 s(year)    0.00511 0.0116  1.28 -0.00979   0.0200 2004.      NA
#> # ℹ 38 more rows
…
