Checklist functions • trias
…
# Display the plot
result$plot
#> NULL

Pathways of introduction

Pathway data

The package includes the pathwayscbd dataset containing
CBD standard pathways at level 1 and level 2.

# View available CBD pathways
pathwayscbd
#> # A tibble: 51 × 2
#>    pathway_level1 pathway_level2       
#>    <chr>          <chr>                
#>  1 release        biological_control   
#>  2 release        erosion_control      
#>  3 release        fishery              
#>  4 release        hunting              
#>  5 release        landscape_improvement
#>  6 release        conservation         
#>  7 release        use                  
#>  8 release        other                
#>  9 release        unknown              
#> 10 escape         agriculture          
#> # ℹ 41 more rows
…
