Occurrence functions • trias
…
GAM model fit (line)

Confidence intervals (shaded area)

Emerging status indicators

result_gam$em_summary
#> # A tibble: 2 × 5
#>   taxonKey  year em_status growth method
#>      <dbl> <dbl>     <dbl>  <dbl> <chr> 
#> 1  3003709  2017         3   1.03 basic 
#> 2  3003709  2018         3   1.02 basic

result_gam$output
#> # A tibble: 24 × 14
#>    taxonKey canonicalName  year     n n_class method   fit   ucl   lcl   em1
#>       <dbl> <chr>         <dbl> <dbl>   <dbl> <chr>  <dbl> <dbl> <dbl> <dbl>
#>  1  3003709 Rosa glauca    1995     1       1 basic  0.530  2.25 0.125     0
#>  2  3003709 Rosa glauca    1996     1       1 basic  0.570  1.97 0.165     0
#>  3  3003709 Rosa glauca    1997     0       0 basic  0.614  1.78 0.212     0
#>  4  3003709 Rosa glauca    1998     0       0 basic  0.664  1.65 0.268     0
#>  5  3003709 Rosa glauca    1999     0       0 basic  0.721  1.58 0.329     0
#>  6  3003709 Rosa glauca    2000     2       2 basic  0.786  1.57 0.394     0
#>  7  3003709 Rosa glauca    2001     0       0 basic  0.859  1.61 0.460     0
#>  8  3003709 Rosa glauca    2002     0       0 basic  0.943  1.70 0.524     1
#>  9  3003709 Rosa glauca    2003     1       1 basic  1.04   1.84 0.587     1
#> 10  3003709 Rosa glauca    2004     3       3 basic  1.15   2.02 0.651     1
#> # ℹ 14 more rows
#> # ℹ 4 more variables: em2 <dbl>, em <dbl>, em_status <dbl>, growth <dbl>
…
first_derivative and
second_derivative: Data frames with derivatives of the
GAM fit, with confidence intervals.

result_gam$first_derivative
#> # A tibble: 24 × 7
#>    smooth  derivative     se  crit  lower_ci upper_ci  year
#>    <chr>        <dbl>  <dbl> <dbl>     <dbl>    <dbl> <dbl>
#>  1 s(year)     0.0699 0.124   1.28 -0.0891      0.229 1995.
#>  2 s(year)     0.0734 0.115   1.28 -0.0739      0.221 1996.
#>  3 s(year)     0.0770 0.106   1.28 -0.0588      0.213 1997.
#>  4 s(year)     0.0805 0.0970  1.28 -0.0437      0.205 1998.
#>  5 s(year)     0.0841 0.0881  1.28 -0.0288      0.197 1999.
#>  6 s(year)     0.0876 0.0793  1.28 -0.0140      0.189 2000.
#>  7 s(year)     0.0911 0.0707  1.28  0.000581    0.182 2001.
#>  8 s(year)     0.0947 0.0623  1.28  0.0149      0.174 2002.
#>  9 s(year)     0.0982 0.0542  1.28  0.0288      0.168 2003.
#> 10 s(year)     0.102  0.0466  1.28  0.0421      0.161 2004.
#> # ℹ 14 more rows

result_gam$second_derivative
#> # A tibble: 24 × 7
#>    smooth  derivative      se  crit lower_ci upper_ci  year
#>    <chr>        <dbl>   <dbl> <dbl>    <dbl>    <dbl> <dbl>
#>  1 s(year)    0.00354 0.00938  1.28 -0.00847   0.0156 1995.
#>  2 s(year)    0.00354 0.00938  1.28 -0.00847   0.0156 1996.
#>  3 s(year)    0.00354 0.00937  1.28 -0.00847   0.0156 1997.
#>  4 s(year)    0.00354 0.00937  1.28 -0.00847   0.0156 1998.
#>  5 s(year)    0.00354 0.00937  1.28 -0.00847   0.0156 1999.
#>  6 s(year)    0.00354 0.00937  1.28 -0.00847   0.0156 2000.
#>  7 s(year)    0.00354 0.00937  1.28 -0.00847   0.0156 2001.
#>  8 s(year)    0.00354 0.00937  1.28 -0.00847   0.0156 2002.
#>  9 s(year)    0.00354 0.00937  1.28 -0.00847   0.0156 2003.
#> 10 s(year)    0.00354 0.00937  1.28 -0.00847   0.0156 2004.
#> # ℹ 14 more rows
…
